15,31,27,26,53,4,64%,51%,87%
65,25,7,26,33,18,24%,21%,28%
66,24,7,36,43,17,21%,16%,29%
81,30,27,33,60,3,60%,45%,90%
107,5,1,21,22,4,7%,5%,20%
227,28,22,43,65,6,47%,34%,79%
239,36,23,16,39,13,61%,59%,64%
